{
	"SARB": {
		"Audit": {
			"AllowAll": true 
		},
		"CompleteForm": {
			"State": ["Incomplete", "New", "AccountRequired"],
			"AllowAll": false 
		},
		"UploadDocs": {
			"State": ["Incomplete", "New", "DocsRequired"],
			"AllowAll": false 
		},
		"Verify": {
			"State": "VerifyDocs",
			"AllowAll": false 
		},
		"ViewForm": {
			"AllowAll": true 
		}
	},
	"BON": {
		"Audit": {
			"AllowAll": true 
		},
		"CompleteForm": {
			"State": ["Incomplete", "New", "AccountRequired"],
			"AllowAll": false 
		},
		"UploadDocs": {
			"State": ["Incomplete", "New", "DocsRequired"],
			"AllowAll": false 
		},
		"Verify": {
			"State": "VerifyDocs",
			"AllowAll": false 
		},
		"ViewForm": {
			"AllowAll": true 
		}
	},
	"RBM": {
		"Audit": {
			"AllowAll": true 
		},
		"CompleteForm": {
			"State": ["Incomplete", "New", "AccountRequired"],
			"AllowAll": false 
		},
		"UploadDocs": {
			"State": ["Incomplete", "New", "DocsRequired"],
			"AllowAll": false 
		},
		"Verify": {
			"State": "VerifyDocs",
			"AllowAll": false 
		},
		"ViewForm": {
			"AllowAll": true 
		}
	}
}